-------------------------------------------------------------------------------
Test set: Parallel04IT
-------------------------------------------------------------------------------
Tests run: 3, Failures: 0, Errors: 0, Skipped: 0, Time elapsed: 8.681 s - in Parallel04IT
